baseuser@helsi.pro,Asclepius1
galacan@ims.co.ua,Asclepius1
user1@helsi.pro,Password - заменить на реальный для qa1 
user2@helsi.pro,Password - заменить на реальный для qa1
user3@helsi.pro,Password - заменить на реальный для qa1
user4@helsi.pro,Password - заменить на реальный для qa1
user5@helsi.pro,Password - заменить на реальный для qa1
user6@helsi.pro,Password - заменить на реальный для qa1
user7@helsi.pro,Password - заменить на реальный для qa1
user8@helsi.pro,Password - заменить на реальный для qa1
